level=15
IDX=279777
IDY=115009
ObjectCount=6
3.0.0.2|8|24|301700000000000028790201|127.372874688378|36.352709505133|59.94683|-3118103.25032173|-4082309.86891445|3780701.2138495|-3118088.59407173|-4082298.49391445|3780714.68274827|0|12|2d2_4682.xdo|0|
3.0.0.2|8|24|301700000000000001550205|127.373223907693|36.3535359467957|56.41609|-3118087.07950881|-4082237.83299299|3780775.23124306|-3118080.03263381|-4082234.98924299|3780778.80211632|0|12|2d2_4705.xdo|0|
3.0.0.2|8|24|301700000000000001560205|127.372878870182|36.353184861796|58.9314|-3118077.34525754|-4082279.2884746|3780744.99630719|-3118071.78275754|-4082271.9134746|3780749.79208355|0|12|2d2_4706.xdo|0|
3.0.0.2|8|24|301700000000000001570205|127.372872381919|36.3533209031084|58.89072|-3118068.43154829|-4082270.61848723|3780757.85733183|-3118067.18154829|-4082264.80598723|3780759.27256544|0|12|2d2_4725.xdo|0|
3.0.0.2|8|24|301700000000000001590205|127.372911051552|36.3529246879566|58.97858|-3118094.52052268|-4082297.03659526|3780721.58042556|-3118080.36427268|-4082278.38034526|3780726.95512038|0|12|2d2_4727.xdo|0|
3.0.0.2|8|24|301700000000000011690208|127.373041330813|36.3527026486306|59.38151|-3118115.83496173|-4082302.06807468|3780699.96278234|-3118100.47558673|-4082289.09932468|3780714.91109319|0|12|2d2_4678.xdo|0|
