level=15
IDX=279779
IDY=115009
ObjectCount=8
3.0.0.2|8|24|301700000000000028900201|127.375320544784|36.3526997357827|55.15941|-3118285.79308857|-4082183.72543721|3780697.85658015|-3118249.82433857|-4082152.19418721|3780709.57531107|0|12|2d2_4763.xdo|0|
3.0.0.2|8|24|301700000000000014510202|127.374866209434|36.3535520680218|54.33287|-3118241.7787202|-4082167.82792419|3780765.81546073|-3118179.1380952|-4082152.14042419|3780816.66270118|0|12|2d2_4699.xdo|0|
3.0.0.2|8|24|301700000000000014620202|127.374863476214|36.353072764306|55.38531|-3118261.33408355|-4082193.80154763|3780723.45617281|-3118198.64658355|-4082178.11404763|3780774.35752092|0|12|2d2_4766.xdo|0|
3.0.0.2|8|24|301700000000000011500208|127.374711039414|36.3536647791191|54.06461|-3118184.79298271|-4082150.23159214|3780785.38907981|-3118181.60548271|-4082144.20034214|3780788.95356727|0|12|2d2_4614.xdo|0|
3.0.0.2|8|24|301700000000000011510208|127.374525646193|36.3534279571402|55.17659|-3118181.8390555|-4082173.67575044|3780764.71311195|-3118178.4484305|-4082167.51950044|3780768.78302391|0|12|2d2_4616.xdo|0|
3.0.0.2|8|24|301700000000000011520208|127.374887020149|36.3534268239401|55.31537|-3118206.91493368|-4082151.73210972|3780764.90450155|-3118204.58680868|-4082149.76335972|3780767.93951666|0|12|2d2_4618.xdo|0|
3.0.0.2|8|24|301700000000000011620208|127.374984109758|36.3527642966866|55.84772|-3118256.05860677|-4082194.06974815|3780704.5532886|-3118225.91798177|-4082171.00724815|3780713.81424823|0|12|2d2_4647.xdo|0|
3.0.0.2|8|24|301700000000000011700208|127.374860781805|36.3529464674866|56.09578|-3118224.70227225|-4082178.94569293|3780722.27865358|-3118222.35852225|-4082176.85194293|3780725.42185732|0|12|2d2_4688.xdo|0|
