level=15
IDX=279781
IDY=115012
ObjectCount=6
3.0.0.2|8|24|301700000000000002550204|127.377044688835|36.3566235692303|47.93959|-3118256.17902429|-4081875.99876288|3781043.98601284|-3118206.99152429|-4081855.81126288|3781062.46264019|0|12|2d2_4582.xdo|0|
3.0.0.2|8|24|301700000000000002560204|127.376884532935|36.356406807038|48.06055|-3118235.95663357|-4081885.60354081|3781027.19549271|-3118215.70663357|-4081878.44729081|3781033.04529282|0|12|2d2_4584.xdo|0|
3.0.0.2|8|24|301700000000000002760204|127.376802445949|36.3563330006713|48.15457|-3118224.43559138|-4081894.42736234|3781020.76115982|-3118221.23246638|-4081886.02111234|3781025.98828689|0|12|2d2_4842.xdo|0|
3.0.0.2|8|24|301700000000000002770204|127.377084089853|36.3564011083361|48.024|-3118240.87787158|-4081871.81053777|3781027.31215879|-3118238.08099658|-4081869.02928777|3781029.97314283|0|12|2d2_4843.xdo|0|
3.0.0.2|8|24|301700000000000002780204|127.377082432408|36.3562198930727|47.76202|-3118279.26273608|-4081903.69794842|3781007.44538898|-3118222.04398608|-4081866.88544842|3781027.12650318|0|12|2d2_4844.xdo|0|
3.0.0.2|8|24|301700000000000012370208|127.377005655316|36.3560739761498|48.75425|-3118249.80905492|-4081894.77692811|3780998.22005223|-3118245.37155492|-4081890.46442811|3781001.84917592|0|12|2d2_4854.xdo|0|
