level=15
IDX=279781
IDY=115010
ObjectCount=13
3.0.0.2|8|24|301700000000000014660202|127.377302761956|36.3540798941536|49.95487|-3118359.64597159|-4081992.812176|3780818.44021848|-3118342.92722159|-4081976.155926|3780830.49907544|0|12|2d2_4773.xdo|0|
3.0.0.2|8|24|301700000000000002790204|127.377299501365|36.3545224655987|49.64997|-3118344.70821209|-4081977.13621162|3780855.49045872|-3118327.52071209|-4081953.07371162|3780879.56855702|0|12|2d2_4860.xdo|0|
3.0.0.2|8|24|301700000000000002800204|127.377187491566|36.3544341098631|49.97792|-3118328.94418054|-4081971.3566574|3780852.01870134|-3118324.50668054|-4081967.3566574|3780855.19781664|0|12|2d2_4861.xdo|0|
3.0.0.2|8|24|301700000000000002820204|127.376883346747|36.3546802171528|49.74538|-3118314.54571138|-4081992.76866273|3780867.21002697|-3118291.79571138|-4081974.11241273|3780903.4682362|0|12|2d2_4870.xdo|0|
3.0.0.2|8|24|301700000000000001610205|127.376901862067|36.3540974931353|49.85317|-3118343.05034802|-4082025.23321016|3780813.29897602|-3118316.87847302|-4082006.32696016|3780858.06093891|0|12|2d2_4867.xdo|0|
3.0.0.2|8|24|301700000000000009110207|127.377282682085|36.354716552823|49.64113|-3118339.567179|-4081966.71727823|3780871.25202731|-3118318.629679|-4081950.09227823|3780903.35432223|0|12|2d2_4859.xdo|0|
3.0.0.2|8|24|301700000000000011940208|127.377274460808|36.3542393787511|49.91933|-3118352.3102096|-4081984.45413427|3780834.03796125|-3118330.2477096|-4081966.67288427|3780839.61203504|0|12|2d2_4774.xdo|0|
3.0.0.2|8|24|301700000000000011950208|127.376896201455|36.353916290425|50.36568|-3118348.7422968|-4082033.89603751|3780798.38527638|-3118322.9297968|-4082014.70853751|3780838.09791524|0|12|2d2_4776.xdo|0|
3.0.0.2|8|24|301700000000000012420208|127.376914846187|36.3542631838028|49.72167|-3118337.71361721|-4082013.87314124|3780828.30820958|-3118310.10424221|-4081997.99814124|3780871.929166|0|12|2d2_4868.xdo|0|
3.0.0.2|8|24|301700000000000012430208|127.376909031087|36.3545013093372|49.86348|-3118326.90216733|-4082000.90742789|3780849.79789667|-3118301.01154233|-4081986.62617789|3780893.1402009|0|12|2d2_4869.xdo|0|
3.0.0.2|8|24|301700000000000012450208|127.377273554808|36.3539434021112|50.06155|-3118364.26916757|-4081997.24816784|3780807.70073432|-3118341.73791757|-4081984.84191784|3780812.71512336|0|12|2d2_4873.xdo|0|
3.0.0.2|8|24|301700000000000012470208|127.377243222182|36.3538622513606|50.24804|-3118358.68268243|-4082000.49100619|3780800.74549016|-3118349.18268243|-4081992.99100619|3780804.7299033|0|12|2d2_4878.xdo|0|
3.0.0.2|8|24|301700000000000012630208|127.377343965734|36.3538346164119|50.08599|-3118366.44850208|-4081994.84298111|3780798.25798827|-3118357.62037708|-4081990.09298111|3780801.81931334|0|12|2d2_4913.xdo|0|
